…
```r
        median <- activity_rem %>% group_by(date) %>% summarise(median(steps), na.rm=T)
```

```
## `summarise()` ungrouping output (override with `.groups` argument)
```

```r
        mean
```

```
## # A tibble: 53 x 3
##    date       `mean(steps)` na.rm
##    <date>             <dbl> <lgl>
##  1 2012-10-02         0.438 TRUE 
##  2 2012-10-03        39.4   TRUE 
##  3 2012-10-04        42.1   TRUE 
##  4 2012-10-05        46.2   TRUE 
##  5 2012-10-06        53.5   TRUE 
##  6 2012-10-07        38.2   TRUE 
##  7 2012-10-09        44.5   TRUE 
##  8 2012-10-10        34.4   TRUE 
##  9 2012-10-11        35.8   TRUE 
## 10 2012-10-12        60.4   TRUE 
## # ... with 43 more rows
```

```r
        median
```

```
## # A tibble: 53 x 3
##    date       `median(steps)` na.rm
##    <date>               <dbl> <lgl>
##  1 2012-10-02               0 TRUE 
##  2 2012-10-03               0 TRUE 
##  3 2012-10-04               0 TRUE 
##  4 2012-10-05               0 TRUE 
##  5 2012-10-06               0 TRUE 
##  6 2012-10-07               0 TRUE 
##  7 2012-10-09               0 TRUE 
##  8 2012-10-10               0 TRUE 
##  9 2012-10-11               0 TRUE 
## 10 2012-10-12               0 TRUE 
## # ... with 43 more rows
```
…
```r
median.new <- activity_new %>% group_by(date) %>% summarise(median=median(steps))
```

```
## `summarise()` ungrouping output (override with `.groups` argument)
```

```r
mean.new
```

```
## # A tibble: 61 x 2
##    date         mean
##    <date>      <dbl>
##  1 2012-10-01 37.4  
##  2 2012-10-02  0.438
##  3 2012-10-03 39.4  
##  4 2012-10-04 42.1  
##  5 2012-10-05 46.2  
##  6 2012-10-06 53.5  
##  7 2012-10-07 38.2  
##  8 2012-10-08 37.4  
##  9 2012-10-09 44.5  
## 10 2012-10-10 34.4  
## # ... with 51 more rows
```

```r
median.new
```

```
## # A tibble: 61 x 2
##    date       median
##    <date>      <dbl>
##  1 2012-10-01   34.1
##  2 2012-10-02    0  
##  3 2012-10-03    0  
##  4 2012-10-04    0  
##  5 2012-10-05    0  
##  6 2012-10-06    0  
##  7 2012-10-07    0  
##  8 2012-10-08   34.1
##  9 2012-10-09    0  
## 10 2012-10-10    0  
## # ... with 51 more rows
```
…
